Google User Study
…
plots[[item]] <- quantile_chart(
  full_data, item,
  "50% of Google Users Click Within 9 Seconds of Their Search",
  "Time (seconds)", "% of users who click before time",
  meanlab = "Average: %s sec", qlab = "%s%% click before %s sec",
  xmax = 50, nudge_x = 1.2)

## # A tibble: 94 x 2
##    `Seconds to first click (use check time stamping on video)`    pct
##                                                          <dbl>  <dbl>
##  1                                                           0 0.0133
##  2                                                           1 0.0233
##  3                                                           2 0.0611
##  4                                                           3 0.124 
##  5                                                           4 0.190 
##  6                                                           5 0.270 
##  7                                                           6 0.340 
##  8                                                           7 0.396 
##  9                                                           8 0.451 
## 10                                                           9 0.502 
## # ... with 84 more rows
…
save_plot(plots[[item]], item, 9, 7)

## might need soem additional work
item_facets <- paste0(item,"_facets")
plots[[item_facets]] <- quantile_chart2(
  full_data, item,
  "Time to First Click Varies Depending on Query Type",
  "Time (seconds)", "% of users who click before time",
  meanlab = "Average: %s sec", qlab = "%s%% click before %s sec",
  xmax = 50, nudge_x = 3)

## # A tibble: 336 x 16
##    `Seconds to fir~ question x_avg  x_q1  x_q2  x_q3 n_by_question    pct y_avg
##               <dbl> <chr>    <dbl> <dbl> <dbl> <dbl>         <int>  <dbl> <dbl>
##  1                0 buy gro~ 12.0      5   7.5  13             256 0.0156 0.727
##  2                0 find a ~ 12.7      6   9.5  15.8           258 0.0116 0.671
##  3                0 find a ~ 17.1      5  10    19             256 0.0117 0.712
##  4                0 find a ~ 17.1      6  11    20             257 0.0117 0.711
##  5                0 find ho~  9.77     4   8    12             258 0.0194 0.640
##  6                0 find ho~ 11.6      5   8    14             259 0.0116 0.663
##  7                0 find su~ 22.0      7  15    27             257 0.0117 0.703
##  8                1 buy gro~ 12.0      5   7.5  13             256 0.0352 0.727
##  9                1 find a ~ 12.7      6   9.5  15.8           258 0.0155 0.671
## 10                1 find a ~ 17.1      5  10    19             256 0.0273 0.712
## # ... with 326 more rows, and 7 more variables: y_q1 <dbl>, y_q2 <dbl>,
## #   y_q3 <dbl>, lab_avg <chr>, lab_q1 <chr>, lab_q2 <chr>, lab_q3 <chr>
…
# quantile data with labels

plots[[item]] <- quantile_chart(
  full_data, item,
  "The Average Google Search Session Lasts 76 Seconds",
  "time (seconds)", "% of users who complete the task before time",
  meanlab = "Average : %s sec", qlab = "%s%% complete before %s sec",
  xmax = 250, nudge_x = 7
)

## # A tibble: 264 x 2
##    `Seconds to complete search task`     pct
##                                <dbl>   <dbl>
##  1                                 4 0.00111
##  2                                 5 0.00222
##  3                                 6 0.00500
##  4                                 7 0.00555
##  5                                 8 0.00777
##  6                                 9 0.0117 
##  7                                10 0.0194 
##  8                                11 0.0250 
##  9                                12 0.0333 
## 10                                13 0.0422 
## # ... with 254 more rows
…
save_plot(plots[[item]], item, 9, 7)

## might need soem additional work
item_facets <- paste0(item,"_facets")
plots[[item_facets]] <- quantile_chart2(
  full_data, item,
  "Time to Complete Search By Query",
  "time (seconds)", "% of users who complete the task before time",
  meanlab = "Average: %s sec", qlab = "%s%% complete before %s sec",
  xmax = 250, nudge_x = 8)

## # A tibble: 866 x 16
##    `Seconds to com~ question x_avg  x_q1  x_q2  x_q3 n_by_question     pct y_avg
##               <dbl> <chr>    <dbl> <dbl> <dbl> <dbl>         <int>   <dbl> <dbl>
##  1                4 find a ~  97.3  43.8  73   123             256 0.00391 0.681
##  2                4 find a ~  87.9  47    69   107             257 0.00389 0.652
##  3                5 buy gro~  80.2  41.8  59.5  94             256 0.00391 0.669
##  4                5 find ho~  50.9  24    37.5  61             258 0.00388 0.689
##  5                6 find a ~  50.6  26    40    62.8           258 0.00388 0.643
##  6                6 find a ~  97.3  43.8  73   123             256 0.00781 0.681
##  7                6 find ho~  50.9  24    37.5  61             258 0.00775 0.689
##  8                6 find ho~  51.1  23    35    58.5           259 0.00772 0.699
##  9                7 find ho~  50.9  24    37.5  61             258 0.0116  0.689
## 10                8 find a ~  50.6  26    40    62.8           258 0.00775 0.643
## # ... with 856 more rows, and 7 more variables: y_q1 <dbl>, y_q2 <dbl>,
## #   y_q3 <dbl>, lab_avg <chr>, lab_q1 <chr>, lab_q2 <chr>, lab_q3 <chr>
…
plots[[item]] <- quantile_chart(
  full_data, item,
  "Total Number of Clicks",
  "Time (seconds)", "% of users who clicked less than this amount",
  meanlab = "Average : %s times", qlab = "%s%% click %s times or less",
  xmax = 30, nudge_x = .8
)

## # A tibble: 43 x 2
##    `Total Clicks`     pct
##             <dbl>   <dbl>
##  1              0 0.00278
##  2              1 0.0572 
##  3              2 0.160  
##  4              3 0.300  
##  5              4 0.389  
##  6              5 0.525  
##  7              6 0.611  
##  8              7 0.689  
##  9              8 0.745  
## 10              9 0.793  
## # ... with 33 more rows
…
save_plot(plots[[item]], item, 9, 7)

item_facets <- paste0(item,"_facets")
plots[[item_facets]] <- quantile_chart2(
  full_data, item,
  "Total Number of Clicks by Question",
  "Time (seconds)", "% of users who clicked less than this amount",
  meanlab = "Average: %s sec", qlab = "%s%% click %s times or less",
  xmax = 30, nudge_x = 1)

## # A tibble: 180 x 16
##    `Total Clicks` question x_avg  x_q1  x_q2  x_q3 n_by_question     pct y_avg
##             <dbl> <chr>    <dbl> <dbl> <dbl> <dbl>         <int>   <dbl> <dbl>
##  1              0 buy gro~  7.80     4     6    10           256 0.00391 0.672
##  2              0 find a ~  5.31     3     4     6           258 0.00388 0.695
##  3              0 find a ~  8.23     4     6    10           256 0.00391 0.694
##  4              0 find a ~  7.58     4     6    10           257 0.00389 0.638
##  5              0 find su~  8.72     3     6    10           257 0.00389 0.694
##  6              1 buy gro~  7.80     4     6    10           256 0.0391  0.672
##  7              1 find a ~  5.31     3     4     6           258 0.0581  0.695
##  8              1 find a ~  8.23     4     6    10           256 0.0352  0.694
##  9              1 find a ~  7.58     4     6    10           257 0.0389  0.638
## 10              1 find ho~  5.66     3     5     8           258 0.0736  0.640
## # ... with 170 more rows, and 7 more variables: y_q1 <dbl>, y_q2 <dbl>,
## #   y_q3 <dbl>, lab_avg <chr>, lab_q1 <chr>, lab_q2 <chr>, lab_q3 <chr>
…
